setcolour red
drawto 100,100
circle 25
moveto 200,100
rectangle 75,50
moveto 300,100,50
triangle 50,50
moveto 400,100
triangle 50,75,30
polygon 4,500,100,550,100,575,150,525,150
setcolour deeppink
fill on
moveto 100,200
circle 25
moveto 200,200
rectangle 75,50,100
moveto 300,200
triangle 50,50
moveto 400,200
triangle 50,50,75
polygon 4,525,200,575,200,550,250,500,250,300